<svg xmlns="http://www.w3.org/2000/svg" height="192" width="96" version="1.1">
<path stroke-linejoin="round" d="m67.266,24.804c0.30602-0.05325,0.5911,0.14253,0.6392,0.43899l22.055,135.92c0.04809,0.29645-0.15954,0.578-0.46554,0.63126,0,0-18.355,3.1784-30.657,5.3352-8.2997,1.455-34.655-18.582-36.539-30.919-2.762-18.08-16.259-100.2-16.259-100.2-0.048-0.296,0.159-0.578,0.465-0.631z" stroke="#000" stroke-linecap="round" stroke-miterlimit="4" stroke-dasharray="none" stroke-width="8" fill="none"/>
<g font-size="30.87146568px" font-weight="500" style="letter-spacing:0px;word-spacing:0px;" transform="matrix(0.16659961,0.98262658,-0.98885235,0.17003281,0,0)" font-stretch="normal" line-height="125%" font-variant="normal" font-family="Ubuntu" font-style="normal" fill="#000">
<path d="m52.31-22.227,0-19.404,13.104,0,0,3.668-8.736,0,0,3.808,7.756,0,0,3.584-7.756,0,0,4.676,9.38,0,0,3.668-13.748,0"/>
<path d="m74.948-41.855c2.912,0.000019,5.1427,0.52269,6.692,1.568,1.5493,1.0267,2.324,2.632,2.324,4.816-0.000017,1.3627-0.31735,2.4733-0.952,3.332-0.61602,0.84001-1.512,1.5027-2.688,1.988,0.39199,0.48534,0.80265,1.0453,1.232,1.68,0.42932,0.616,0.84932,1.2693,1.26,1.96,0.42932,0.672,0.83998,1.3813,1.232,2.128,0.39198,0.728,0.75598,1.4467,1.092,2.156h-4.9c-0.35468-0.63467-0.71868-1.2787-1.092-1.932-0.35468-0.65333-0.72801-1.288-1.12-1.904-0.37334-0.616-0.74668-1.1947-1.12-1.736-0.37334-0.55999-0.74668-1.064-1.12-1.512h-2.156v7.084h-4.368v-19.124c0.952-0.18665,1.932-0.31731,2.94-0.392,1.0267-0.07465,1.9413-0.11198,2.744-0.112m0.252,3.724c-0.31734,0.000016-0.60667,0.0093-0.868,0.028-0.24267,0.01868-0.47601,0.03735-0.7,0.056v5.264h1.232c1.6427,0.00001,2.8187-0.20532,3.528-0.616,0.70932-0.41066,1.064-1.1107,1.064-2.1-0.000012-0.95199-0.36401-1.624-1.092-2.016-0.70934-0.41065-1.764-0.61598-3.164-0.616"/>
<path d="m101.83-22.227c-0.20535-0.672-0.43868-1.3627-0.7-2.072-0.24268-0.70933-0.48535-1.4187-0.728-2.128h-7.56c-0.24267,0.70934-0.49467,1.4187-0.756,2.128-0.24267,0.70933-0.46667,1.4-0.672,2.072h-4.536c0.728-2.0907,1.4187-4.0227,2.072-5.796,0.65333-1.7733,1.288-3.444,1.904-5.012,0.63466-1.568,1.2507-3.052,1.848-4.452,0.61599-1.4186,1.2507-2.8,1.904-4.144h4.172c0.63465,1.344,1.26,2.7254,1.876,4.144,0.61599,1.4,1.232,2.884,1.848,4.452,0.63465,1.568,1.2786,3.2387,1.932,5.012,0.65332,1.7733,1.344,3.7053,2.072,5.796h-4.676m-5.236-15.008c-0.09334,0.28001-0.23334,0.66268-0.42,1.148-0.18668,0.48535-0.40134,1.0453-0.644,1.68-0.24268,0.63468-0.51334,1.3347-0.812,2.1-0.28001,0.76534-0.56934,1.568-0.868,2.408h5.516c-0.29868-0.83999-0.58801-1.6427-0.868-2.408-0.28001-0.76532-0.55068-1.4653-0.812-2.1-0.24268-0.63465-0.45734-1.1947-0.644-1.68-0.18668-0.48532-0.33601-0.86799-0.448-1.148"/>
<path d="m114.84-25.559c0.61599,0.000003,1.12-0.04666,1.512-0.14,0.41066-0.112,0.73733-0.252,0.98-0.42,0.24266-0.18666,0.41066-0.40133,0.504-0.644,0.0933-0.24266,0.13999-0.51333,0.14-0.812-0.00001-0.63466-0.29867-1.1573-0.896-1.568-0.59734-0.42933-1.624-0.88666-3.08-1.372-0.63467-0.22399-1.2693-0.47599-1.904-0.756-0.63467-0.29866-1.204-0.66266-1.708-1.092-0.504-0.44799-0.91467-0.97999-1.232-1.596-0.31733-0.63466-0.476-1.4-0.476-2.296,0-0.89598,0.168-1.6987,0.504-2.408,0.336-0.72798,0.812-1.344,1.428-1.848,0.616-0.50398,1.3627-0.88665,2.24-1.148,0.87733-0.27998,1.8667-0.41998,2.968-0.42,1.3067,0.00002,2.436,0.14002,3.388,0.42,0.95199,0.28002,1.736,0.58802,2.352,0.924l-1.26,3.444c-0.54134-0.27998-1.148-0.52265-1.82-0.728-0.65334-0.22398-1.4467-0.33598-2.38-0.336-1.0453,0.000016-1.8013,0.14935-2.268,0.448-0.448,0.28002-0.672,0.71868-0.672,1.316,0,0.35468,0.084,0.65335,0.252,0.896,0.168,0.24268,0.40133,0.46668,0.7,0.672,0.31733,0.18668,0.672,0.36401,1.064,0.532,0.41066,0.14934,0.85866,0.30801,1.344,0.476,1.008,0.37334,1.8853,0.74668,2.632,1.12,0.74666,0.35468,1.3627,0.77468,1.848,1.26,0.50399,0.48534,0.87732,1.0547,1.12,1.708,0.24265,0.65334,0.36399,1.4467,0.364,2.38-0.00001,1.8107-0.63468,3.22-1.904,4.228-1.2693,0.98933-3.1827,1.484-5.74,1.484-0.85867-0.000001-1.6333-0.056-2.324-0.168-0.69067-0.09333-1.3067-0.21467-1.848-0.364-0.52267-0.14933-0.98-0.308-1.372-0.476-0.37333-0.168-0.69066-0.32667-0.952-0.476l1.232-3.472c0.57867,0.31734,1.288,0.60667,2.128,0.868,0.85866,0.24267,1.904,0.364,3.136,0.364"/>
<path d="m125.84-22.227,0-19.404,13.104,0,0,3.668-8.736,0,0,3.808,7.756,0,0,3.584-7.756,0,0,4.676,9.38,0,0,3.668-13.748,0"/>
<path d="m148.48-41.855c2.912,0.000019,5.1427,0.52269,6.692,1.568,1.5493,1.0267,2.324,2.632,2.324,4.816-0.00001,1.3627-0.31735,2.4733-0.952,3.332-0.61601,0.84001-1.512,1.5027-2.688,1.988,0.39199,0.48534,0.80266,1.0453,1.232,1.68,0.42932,0.616,0.84932,1.2693,1.26,1.96,0.42932,0.672,0.83999,1.3813,1.232,2.128,0.39199,0.728,0.75599,1.4467,1.092,2.156h-4.9c-0.35468-0.63467-0.71868-1.2787-1.092-1.932-0.35468-0.65333-0.72801-1.288-1.12-1.904-0.37334-0.616-0.74667-1.1947-1.12-1.736-0.37334-0.55999-0.74667-1.064-1.12-1.512h-2.156v7.084h-4.368v-19.124c0.952-0.18665,1.932-0.31731,2.94-0.392,1.0267-0.07465,1.9413-0.11198,2.744-0.112m0.252,3.724c-0.31734,0.000016-0.60667,0.0093-0.868,0.028-0.24267,0.01868-0.476,0.03735-0.7,0.056v5.264h1.232c1.6427,0.00001,2.8187-0.20532,3.528-0.616,0.70932-0.41066,1.064-1.1107,1.064-2.1-0.00001-0.95199-0.36401-1.624-1.092-2.016-0.70934-0.41065-1.764-0.61598-3.164-0.616"/>
</g>
</svg>
